Introduction to tidyCoverage • tidyCoverage
…
coarsen(CE, window = 50)
#> class: CoverageExperiment 
#> dim: 1 1 
#> metadata(0):
#> assays(1): coverage
#> rownames(1): features
#> rowData names(1): features
#> colnames(1): track
#> colData names(1): track
#> width: 3000

Expand a CoverageExperiment object

expand(CE)
#> # A tibble: 5,355,000 × 7
#> # Groups:   track, features, ranges [1,785]
#>    track features chr   ranges             strand  coord coverage
#>    <chr> <chr>    <chr> <chr>              <chr>   <dbl>    <dbl>
#>  1 track features II    II:235967-238966:- -      235967     1.24
#>  2 track features II    II:235967-238966:- -      235968     1.24
#>  3 track features II    II:235967-238966:- -      235969     1.24
#>  4 track features II    II:235967-238966:- -      235970     1.24
#>  5 track features II    II:235967-238966:- -      235971     1.24
#>  6 track features II    II:235967-238966:- -      235972     1.24
#>  7 track features II    II:235967-238966:- -      235973     1.24
#>  8 track features II    II:235967-238966:- -      235974     1.24
#>  9 track features II    II:235967-238966:- -      235975     1.24
#> 10 track features II    II:235967-238966:- -      235976     1.24
#> # ℹ 5,354,990 more rows
…
